Building tree
Printing tree tab
ind 0:
pap_90 26.000000, pap 95 41.000000, incr 15.000000
ind 1:
pap_90 26.000000, pap 95 32.000000, incr 6.000000
ind 2:
pap_90 27.000000, pap 95 37.000000, incr 10.000000
ind 3:
pap_90 27.000000, pap 95 49.000000, incr 22.000000
ind 4:
pap_90 28.000000, pap 95 51.000000, incr 23.000000
ind 5:
pap_90 67.000000, pap 95 86.000000, incr 19.000000
Will sort
Printin tree tab
ind 0:
pap_90 26.000000, pap 95 41.000000, incr 15.000000
ind 1:
pap_90 26.000000, pap 95 32.000000, incr 6.000000
ind 2:
pap_90 27.000000, pap 95 37.000000, incr 10.000000
ind 3:
pap_90 27.000000, pap 95 49.000000, incr 22.000000
ind 4:
pap_90 28.000000, pap 95 51.000000, incr 23.000000
ind 5:
pap_90 67.000000, pap 95 86.000000, incr 19.000000
Selected tree 2
History: [27, 37]

History top:  37.000000
Maximum height: 67.000000
Go next
Selected tree 5
History: [27, 37, 56]
Go next
Selected tree 5
History: [27, 37, 56, 75]
